{
	"info": {
		"_postman_id": "bed13aba-67f5-489c-aaa9-289b695a61ba",
		"name": "MongoDB_ScaleUp",
		"schema": "https://schema.getpostman.com/json/collection/v2.1.0/collection.json"
	},
	"item": [
		{
			"name": "ScaleUp",
			"event": [
				{
					"listen": "test",
					"script": {
						"id": "badffe44-086a-4d68-a4b7-6205739ae8e3",
						"exec": [
							"\r",
							"setTimeout(function(){\r",
							"        console.log(\"Sleeping for 5 seconds before next request.\");\r",
							"}, 5000);\r",
							""
						],
						"type": "text/javascript"
					}
				}
			],
			"request": {
				"auth": {
					"type": "basic",
					"basic": [
						{
							"key": "password",
							"value": "tHCXrjPqbmWeXuYsytv7m58Wfpf8J9tT893HeLnw",
							"type": "string"
						},
						{
							"key": "username",
							"value": "8A5846C15318C4EFC642",
							"type": "string"
						}
					]
				},
				"method": "PUT",
				"header": [],
				"body": {
					"mode": "raw",
					"raw": "{\r\n    \"id\": \"1s139\",\r\n    \"type\": \"service\",\r\n    \"links\": {\r\n        \"self\": \"http://10.97.178.209:8080/v1/services/1s139\",\r\n        \"account\": \"http://10.97.178.209:8080/v1/services/1s139/account\",\r\n        \"configItemStatuses\": \"http://10.97.178.209:8080/v1/services/1s139/configitemstatuses\",\r\n        \"consumedbyservices\": \"http://10.97.178.209:8080/v1/services/1s139/consumedbyservices\",\r\n        \"consumedservices\": \"http://10.97.178.209:8080/v1/services/1s139/consumedservices\",\r\n        \"instances\": \"http://10.97.178.209:8080/v1/services/1s139/instances\",\r\n        \"networkDrivers\": \"http://10.97.178.209:8080/v1/services/1s139/networkdrivers\",\r\n        \"serviceExposeMaps\": \"http://10.97.178.209:8080/v1/services/1s139/serviceexposemaps\",\r\n        \"serviceLogs\": \"http://10.97.178.209:8080/v1/services/1s139/servicelogs\",\r\n        \"storageDrivers\": \"http://10.97.178.209:8080/v1/services/1s139/storagedrivers\",\r\n        \"containerStats\": \"http://10.97.178.209:8080/v1/services/1s139/containerstats\",\r\n        \"environment\": \"http://10.97.178.209:8080/v1/environment/1e6\"\r\n    },\r\n    \"actions\": {\r\n        \"upgrade\": \"http://10.97.178.209:8080/v1/services/1s139/?action=upgrade\",\r\n        \"restart\": \"http://10.97.178.209:8080/v1/services/1s139/?action=restart\",\r\n        \"update\": \"http://10.97.178.209:8080/v1/services/1s139/?action=update\",\r\n        \"remove\": \"http://10.97.178.209:8080/v1/services/1s139/?action=remove\",\r\n        \"deactivate\": \"http://10.97.178.209:8080/v1/services/1s139/?action=deactivate\",\r\n        \"removeservicelink\": \"http://10.97.178.209:8080/v1/services/1s139/?action=removeservicelink\",\r\n        \"addservicelink\": \"http://10.97.178.209:8080/v1/services/1s139/?action=addservicelink\",\r\n        \"setservicelinks\": \"http://10.97.178.209:8080/v1/services/1s139/?action=setservicelinks\"\r\n    },\r\n    \"baseType\": \"service\",\r\n    \"name\": \"MongoDB\",\r\n    \"state\": \"active\",\r\n    \"accountId\": \"1a5\",\r\n    \"assignServiceIpAddress\": false,\r\n    \"createIndex\": 61,\r\n    \"created\": \"2020-03-02T08:13:41Z\",\r\n    \"createdTS\": 1583136821000,\r\n    \"currentScale\": 2,\r\n    \"data\": {\r\n        \"fields\": {\r\n            \"startOnCreate\": true,\r\n            \"secondaryLaunchConfigs\": [],\r\n            \"launchConfig\": {\r\n                \"instanceTriggeredStop\": \"stop\",\r\n                \"kind\": \"container\",\r\n                \"networkMode\": \"managed\",\r\n                \"privileged\": false,\r\n                \"publishAllPorts\": false,\r\n                \"readOnly\": false,\r\n                \"runInit\": false,\r\n                \"startOnCreate\": true,\r\n                \"stdinOpen\": true,\r\n                \"tty\": true,\r\n                \"vcpu\": 1,\r\n                \"drainTimeoutMs\": 0,\r\n                \"blkioWeight\": null,\r\n                \"capAdd\": [],\r\n                \"capDrop\": [],\r\n                \"cgroupParent\": null,\r\n                \"command\": null,\r\n                \"count\": null,\r\n                \"cpuCount\": null,\r\n                \"cpuPercent\": null,\r\n                \"cpuPeriod\": null,\r\n                \"cpuQuota\": null,\r\n                \"cpuRealtimePeriod\": null,\r\n                \"cpuRealtimeRuntime\": null,\r\n                \"cpuSet\": null,\r\n                \"cpuSetMems\": null,\r\n                \"cpuShares\": null,\r\n                \"dataVolumes\": [\r\n                    \"//mongo_test:/data/db/\"\r\n                ],\r\n                \"dataVolumesFrom\": [],\r\n                \"description\": null,\r\n                \"devices\": [],\r\n                \"diskQuota\": null,\r\n                \"dns\": [],\r\n                \"dnsSearch\": [],\r\n                \"domainName\": null,\r\n                \"healthInterval\": null,\r\n                \"healthRetries\": null,\r\n                \"healthTimeout\": null,\r\n                \"hostname\": null,\r\n                \"imageUuid\": \"docker:mongo:3.4\",\r\n                \"ioMaximumBandwidth\": null,\r\n                \"ioMaximumIOps\": null,\r\n                \"ip\": null,\r\n                \"ip6\": null,\r\n                \"ipcMode\": null,\r\n                \"isolation\": null,\r\n                \"kernelMemory\": null,\r\n                \"labels\": {\r\n                    \"io.rancher.container.pull_image\": \"always\"\r\n                },\r\n                \"logConfig\": {\r\n                    \"config\": {},\r\n                    \"driver\": null\r\n                },\r\n                \"memory\": null,\r\n                \"memoryMb\": null,\r\n                \"memoryReservation\": null,\r\n                \"memorySwap\": null,\r\n                \"memorySwappiness\": null,\r\n                \"milliCpuReservation\": null,\r\n                \"oomScoreAdj\": null,\r\n                \"pidMode\": null,\r\n                \"pidsLimit\": null,\r\n                \"ports\": [\r\n                    \"27017:27017/tcp\"\r\n                ],\r\n                \"requestedIpAddress\": null,\r\n                \"secrets\": [],\r\n                \"shmSize\": null,\r\n                \"stopSignal\": null,\r\n                \"stopTimeout\": null,\r\n                \"user\": null,\r\n                \"userdata\": null,\r\n                \"usernsMode\": null,\r\n                \"uts\": null,\r\n                \"volumeDriver\": null,\r\n                \"workingDir\": null,\r\n                \"dataVolumesFromLaunchConfigs\": [],\r\n                \"networkLaunchConfig\": null,\r\n                \"system\": false,\r\n                \"version\": \"59a2a451-0abd-4259-adaa-1a57aeb87bab\"\r\n            },\r\n            \"scale\": 2,\r\n            \"serviceIndexStrategy\": \"deploymentUnitBased\",\r\n            \"assignServiceIpAddress\": false,\r\n            \"token\": \"hKM4x4MkqC3HiWBRnEfQZmPNDMyKe7CRGwKdVx5k\",\r\n            \"executionCount\": 1,\r\n            \"executionPeriodStart\": 1595495685288,\r\n            \"publicEndpoints\": [\r\n                {\r\n                    \"ipAddress\": \"10.97.179.1\",\r\n                    \"port\": 27017,\r\n                    \"serviceId\": \"139\",\r\n                    \"hostId\": \"8\",\r\n                    \"instanceId\": \"33207\"\r\n                }\r\n            ],\r\n            \"currentScale\": 2,\r\n            \"upgrade\": {\r\n                \"inServiceStrategy\": {\r\n                    \"intervalMillis\": 2000,\r\n                    \"batchSize\": 1,\r\n                    \"launchConfig\": {\r\n                        \"instanceTriggeredStop\": \"stop\",\r\n                        \"kind\": \"container\",\r\n                        \"networkMode\": \"managed\",\r\n                        \"privileged\": false,\r\n                        \"publishAllPorts\": false,\r\n                        \"readOnly\": false,\r\n                        \"runInit\": false,\r\n                        \"startOnCreate\": true,\r\n                        \"stdinOpen\": true,\r\n                        \"tty\": true,\r\n                        \"vcpu\": 1,\r\n                        \"drainTimeoutMs\": 0,\r\n                        \"blkioWeight\": null,\r\n                        \"capAdd\": [],\r\n                        \"capDrop\": [],\r\n                        \"cgroupParent\": null,\r\n                        \"command\": null,\r\n                        \"count\": null,\r\n                        \"cpuCount\": null,\r\n                        \"cpuPercent\": null,\r\n                        \"cpuPeriod\": null,\r\n                        \"cpuQuota\": null,\r\n                        \"cpuRealtimePeriod\": null,\r\n                        \"cpuRealtimeRuntime\": null,\r\n                        \"cpuSet\": null,\r\n                        \"cpuSetMems\": null,\r\n                        \"cpuShares\": null,\r\n                        \"dataVolumes\": [\r\n                            \"//mongo_test:/data/db/\"\r\n                        ],\r\n                        \"dataVolumesFrom\": [],\r\n                        \"description\": null,\r\n                        \"devices\": [],\r\n                        \"diskQuota\": null,\r\n                        \"dns\": [],\r\n                        \"dnsSearch\": [],\r\n                        \"domainName\": null,\r\n                        \"healthInterval\": null,\r\n                        \"healthRetries\": null,\r\n                        \"healthTimeout\": null,\r\n                        \"hostname\": null,\r\n                        \"imageUuid\": \"docker:mongo:3.4\",\r\n                        \"ioMaximumBandwidth\": null,\r\n                        \"ioMaximumIOps\": null,\r\n                        \"ip\": null,\r\n                        \"ip6\": null,\r\n                        \"ipcMode\": null,\r\n                        \"isolation\": null,\r\n                        \"kernelMemory\": null,\r\n                        \"labels\": {\r\n                            \"io.rancher.container.pull_image\": \"always\"\r\n                        },\r\n                        \"logConfig\": {\r\n                            \"config\": {},\r\n                            \"driver\": null\r\n                        },\r\n                        \"memory\": null,\r\n                        \"memoryMb\": null,\r\n                        \"memoryReservation\": null,\r\n                        \"memorySwap\": null,\r\n                        \"memorySwappiness\": null,\r\n                        \"milliCpuReservation\": null,\r\n                        \"oomScoreAdj\": null,\r\n                        \"pidMode\": null,\r\n                        \"pidsLimit\": null,\r\n                        \"ports\": [\r\n                            \"27017:27017/tcp\"\r\n                        ],\r\n                        \"requestedIpAddress\": null,\r\n                        \"secrets\": [],\r\n                        \"shmSize\": null,\r\n                        \"stopSignal\": null,\r\n                        \"stopTimeout\": null,\r\n                        \"user\": null,\r\n                        \"userdata\": null,\r\n                        \"usernsMode\": null,\r\n                        \"uts\": null,\r\n                        \"volumeDriver\": null,\r\n                        \"workingDir\": null,\r\n                        \"dataVolumesFromLaunchConfigs\": [],\r\n                        \"networkLaunchConfig\": null,\r\n                        \"system\": false,\r\n                        \"version\": \"59a2a451-0abd-4259-adaa-1a57aeb87bab\"\r\n                    },\r\n                    \"secondaryLaunchConfigs\": [],\r\n                    \"previousLaunchConfig\": {\r\n                        \"instanceTriggeredStop\": \"stop\",\r\n                        \"kind\": \"container\",\r\n                        \"networkMode\": \"managed\",\r\n                        \"privileged\": false,\r\n                        \"publishAllPorts\": false,\r\n                        \"readOnly\": false,\r\n                        \"runInit\": false,\r\n                        \"startOnCreate\": true,\r\n                        \"stdinOpen\": true,\r\n                        \"tty\": true,\r\n                        \"vcpu\": 1,\r\n                        \"drainTimeoutMs\": 0,\r\n                        \"blkioWeight\": null,\r\n                        \"capAdd\": [],\r\n                        \"capDrop\": [],\r\n                        \"cgroupParent\": null,\r\n                        \"command\": null,\r\n                        \"count\": null,\r\n                        \"cpuCount\": null,\r\n                        \"cpuPercent\": null,\r\n                        \"cpuPeriod\": null,\r\n                        \"cpuQuota\": null,\r\n                        \"cpuRealtimePeriod\": null,\r\n                        \"cpuRealtimeRuntime\": null,\r\n                        \"cpuSet\": null,\r\n                        \"cpuSetMems\": null,\r\n                        \"cpuShares\": null,\r\n                        \"dataVolumes\": [\r\n                            \"//mongo_test:/data/db/\"\r\n                        ],\r\n                        \"dataVolumesFrom\": [],\r\n                        \"description\": null,\r\n                        \"devices\": [],\r\n                        \"diskQuota\": null,\r\n                        \"dns\": [],\r\n                        \"dnsSearch\": [],\r\n                        \"domainName\": null,\r\n                        \"healthInterval\": null,\r\n                        \"healthRetries\": null,\r\n                        \"healthTimeout\": null,\r\n                        \"hostname\": null,\r\n                        \"imageUuid\": \"docker:mongo:3.4\",\r\n                        \"ioMaximumBandwidth\": null,\r\n                        \"ioMaximumIOps\": null,\r\n                        \"ip\": null,\r\n                        \"ip6\": null,\r\n                        \"ipcMode\": null,\r\n                        \"isolation\": null,\r\n                        \"kernelMemory\": null,\r\n                        \"labels\": {\r\n                            \"io.rancher.container.pull_image\": \"always\"\r\n                        },\r\n                        \"logConfig\": {\r\n                            \"config\": {},\r\n                            \"driver\": null\r\n                        },\r\n                        \"memory\": null,\r\n                        \"memoryMb\": null,\r\n                        \"memoryReservation\": null,\r\n                        \"memorySwap\": null,\r\n                        \"memorySwappiness\": null,\r\n                        \"milliCpuReservation\": null,\r\n                        \"oomScoreAdj\": null,\r\n                        \"pidMode\": null,\r\n                        \"pidsLimit\": null,\r\n                        \"ports\": [\r\n                            \"27017:27017/tcp\"\r\n                        ],\r\n                        \"requestedIpAddress\": null,\r\n                        \"secrets\": [],\r\n                        \"shmSize\": null,\r\n                        \"stopSignal\": null,\r\n                        \"stopTimeout\": null,\r\n                        \"user\": null,\r\n                        \"userdata\": null,\r\n                        \"usernsMode\": null,\r\n                        \"uts\": null,\r\n                        \"volumeDriver\": null,\r\n                        \"workingDir\": null,\r\n                        \"dataVolumesFromLaunchConfigs\": [],\r\n                        \"networkLaunchConfig\": null,\r\n                        \"system\": false,\r\n                        \"version\": \"0c4c2191-1c3e-460e-a50e-5e6f30e1c814\"\r\n                    },\r\n                    \"previousSecondaryLaunchConfigs\": [],\r\n                    \"startFirst\": false,\r\n                    \"fullUpgrade\": true\r\n                },\r\n                \"toServiceStrategy\": null\r\n            },\r\n            \"transitioning\": null,\r\n            \"transitioningMessage\": null\r\n        }\r\n    },\r\n    \"description\": null,\r\n    \"externalId\": null,\r\n    \"fqdn\": null,\r\n    \"healthState\": \"healthy\",\r\n    \"instanceIds\": [\r\n        \"1i33207\"\r\n    ],\r\n    \"kind\": \"service\",\r\n    \"launchConfig\": {\r\n        \"type\": \"launchConfig\",\r\n        \"blkioWeight\": null,\r\n        \"capAdd\": [],\r\n        \"capDrop\": [],\r\n        \"cgroupParent\": null,\r\n        \"command\": null,\r\n        \"count\": null,\r\n        \"cpuCount\": null,\r\n        \"cpuPercent\": null,\r\n        \"cpuPeriod\": null,\r\n        \"cpuQuota\": null,\r\n        \"cpuRealtimePeriod\": null,\r\n        \"cpuRealtimeRuntime\": null,\r\n        \"cpuSet\": null,\r\n        \"cpuSetMems\": null,\r\n        \"cpuShares\": null,\r\n        \"dataVolumes\": [\r\n            \"//mongo_test:/data/db/\"\r\n        ],\r\n        \"dataVolumesFrom\": [],\r\n        \"description\": null,\r\n        \"devices\": [],\r\n        \"diskQuota\": null,\r\n        \"dns\": [],\r\n        \"dnsSearch\": [],\r\n        \"domainName\": null,\r\n        \"healthInterval\": null,\r\n        \"healthRetries\": null,\r\n        \"healthTimeout\": null,\r\n        \"hostname\": null,\r\n        \"imageUuid\": \"docker:mongo:3.4\",\r\n        \"instanceTriggeredStop\": \"stop\",\r\n        \"ioMaximumBandwidth\": null,\r\n        \"ioMaximumIOps\": null,\r\n        \"ip\": null,\r\n        \"ip6\": null,\r\n        \"ipcMode\": null,\r\n        \"isolation\": null,\r\n        \"kernelMemory\": null,\r\n        \"kind\": \"container\",\r\n        \"labels\": {\r\n            \"io.rancher.container.pull_image\": \"always\"\r\n        },\r\n        \"logConfig\": {\r\n            \"type\": \"logConfig\",\r\n            \"config\": {},\r\n            \"driver\": null\r\n        },\r\n        \"memory\": null,\r\n        \"memoryMb\": null,\r\n        \"memoryReservation\": null,\r\n        \"memorySwap\": null,\r\n        \"memorySwappiness\": null,\r\n        \"milliCpuReservation\": null,\r\n        \"networkMode\": \"managed\",\r\n        \"oomScoreAdj\": null,\r\n        \"pidMode\": null,\r\n        \"pidsLimit\": null,\r\n        \"ports\": [\r\n            \"27017:27017/tcp\"\r\n        ],\r\n        \"privileged\": false,\r\n        \"publishAllPorts\": false,\r\n        \"readOnly\": false,\r\n        \"requestedIpAddress\": null,\r\n        \"runInit\": false,\r\n        \"secrets\": [],\r\n        \"shmSize\": null,\r\n        \"startOnCreate\": true,\r\n        \"stdinOpen\": true,\r\n        \"stopSignal\": null,\r\n        \"stopTimeout\": null,\r\n        \"system\": false,\r\n        \"tty\": true,\r\n        \"user\": null,\r\n        \"userdata\": null,\r\n        \"usernsMode\": null,\r\n        \"uts\": null,\r\n        \"version\": \"59a2a451-0abd-4259-adaa-1a57aeb87bab\",\r\n        \"volumeDriver\": null,\r\n        \"workingDir\": null,\r\n        \"dataVolumesFromLaunchConfigs\": [],\r\n        \"networkLaunchConfig\": null,\r\n        \"vcpu\": 1,\r\n        \"drainTimeoutMs\": 0\r\n    },\r\n    \"lbConfig\": null,\r\n    \"linkedServices\": null,\r\n    \"metadata\": null,\r\n    \"publicEndpoints\": [\r\n        {\r\n            \"type\": \"publicEndpoint\",\r\n            \"hostId\": \"1h8\",\r\n            \"instanceId\": \"1i33207\",\r\n            \"ipAddress\": \"10.97.179.1\",\r\n            \"port\": 27017,\r\n            \"serviceId\": \"1s139\"\r\n        }\r\n    ],\r\n    \"removeTime\": null,\r\n    \"removed\": null,\r\n    \"retainIp\": null,\r\n    \"scale\": 2,\r\n    \"scalePolicy\": null,\r\n    \"secondaryLaunchConfigs\": [],\r\n    \"selectorContainer\": null,\r\n    \"selectorLink\": null,\r\n    \"stackId\": \"1st6\",\r\n    \"startOnCreate\": true,\r\n    \"system\": false,\r\n    \"transitioning\": \"no\",\r\n    \"transitioningMessage\": null,\r\n    \"transitioningProgress\": null,\r\n    \"upgrade\": {\r\n        \"type\": \"serviceUpgrade\",\r\n        \"inServiceStrategy\": {\r\n            \"type\": \"inServiceUpgradeStrategy\",\r\n            \"batchSize\": 1,\r\n            \"intervalMillis\": 2000,\r\n            \"launchConfig\": {\r\n                \"type\": \"launchConfig\",\r\n                \"blkioWeight\": null,\r\n                \"capAdd\": [],\r\n                \"capDrop\": [],\r\n                \"cgroupParent\": null,\r\n                \"command\": null,\r\n                \"count\": null,\r\n                \"cpuCount\": null,\r\n                \"cpuPercent\": null,\r\n                \"cpuPeriod\": null,\r\n                \"cpuQuota\": null,\r\n                \"cpuRealtimePeriod\": null,\r\n                \"cpuRealtimeRuntime\": null,\r\n                \"cpuSet\": null,\r\n                \"cpuSetMems\": null,\r\n                \"cpuShares\": null,\r\n                \"dataVolumes\": [\r\n                    \"//mongo_test:/data/db/\"\r\n                ],\r\n                \"dataVolumesFrom\": [],\r\n                \"description\": null,\r\n                \"devices\": [],\r\n                \"diskQuota\": null,\r\n                \"dns\": [],\r\n                \"dnsSearch\": [],\r\n                \"domainName\": null,\r\n                \"healthInterval\": null,\r\n                \"healthRetries\": null,\r\n                \"healthTimeout\": null,\r\n                \"hostname\": null,\r\n                \"imageUuid\": \"docker:mongo:3.4\",\r\n                \"instanceTriggeredStop\": \"stop\",\r\n                \"ioMaximumBandwidth\": null,\r\n                \"ioMaximumIOps\": null,\r\n                \"ip\": null,\r\n                \"ip6\": null,\r\n                \"ipcMode\": null,\r\n                \"isolation\": null,\r\n                \"kernelMemory\": null,\r\n                \"kind\": \"container\",\r\n                \"labels\": {\r\n                    \"io.rancher.container.pull_image\": \"always\"\r\n                },\r\n                \"logConfig\": {\r\n                    \"type\": \"logConfig\",\r\n                    \"config\": {},\r\n                    \"driver\": null\r\n                },\r\n                \"memory\": null,\r\n                \"memoryMb\": null,\r\n                \"memoryReservation\": null,\r\n                \"memorySwap\": null,\r\n                \"memorySwappiness\": null,\r\n                \"milliCpuReservation\": null,\r\n                \"networkMode\": \"managed\",\r\n                \"oomScoreAdj\": null,\r\n                \"pidMode\": null,\r\n                \"pidsLimit\": null,\r\n                \"ports\": [\r\n                    \"27017:27017/tcp\"\r\n                ],\r\n                \"privileged\": false,\r\n                \"publishAllPorts\": false,\r\n                \"readOnly\": false,\r\n                \"requestedIpAddress\": null,\r\n                \"runInit\": false,\r\n                \"secrets\": [],\r\n                \"shmSize\": null,\r\n                \"startOnCreate\": true,\r\n                \"stdinOpen\": true,\r\n                \"stopSignal\": null,\r\n                \"stopTimeout\": null,\r\n                \"system\": false,\r\n                \"tty\": true,\r\n                \"user\": null,\r\n                \"userdata\": null,\r\n                \"usernsMode\": null,\r\n                \"uts\": null,\r\n                \"version\": \"59a2a451-0abd-4259-adaa-1a57aeb87bab\",\r\n                \"volumeDriver\": null,\r\n                \"workingDir\": null,\r\n                \"dataVolumesFromLaunchConfigs\": [],\r\n                \"networkLaunchConfig\": null,\r\n                \"vcpu\": 1,\r\n                \"drainTimeoutMs\": 0\r\n            },\r\n            \"previousLaunchConfig\": {\r\n                \"type\": \"launchConfig\",\r\n                \"blkioWeight\": null,\r\n                \"capAdd\": [],\r\n                \"capDrop\": [],\r\n                \"cgroupParent\": null,\r\n                \"command\": null,\r\n                \"count\": null,\r\n                \"cpuCount\": null,\r\n                \"cpuPercent\": null,\r\n                \"cpuPeriod\": null,\r\n                \"cpuQuota\": null,\r\n                \"cpuRealtimePeriod\": null,\r\n                \"cpuRealtimeRuntime\": null,\r\n                \"cpuSet\": null,\r\n                \"cpuSetMems\": null,\r\n                \"cpuShares\": null,\r\n                \"dataVolumes\": [\r\n                    \"//mongo_test:/data/db/\"\r\n                ],\r\n                \"dataVolumesFrom\": [],\r\n                \"description\": null,\r\n                \"devices\": [],\r\n                \"diskQuota\": null,\r\n                \"dns\": [],\r\n                \"dnsSearch\": [],\r\n                \"domainName\": null,\r\n                \"healthInterval\": null,\r\n                \"healthRetries\": null,\r\n                \"healthTimeout\": null,\r\n                \"hostname\": null,\r\n                \"imageUuid\": \"docker:mongo:3.4\",\r\n                \"instanceTriggeredStop\": \"stop\",\r\n                \"ioMaximumBandwidth\": null,\r\n                \"ioMaximumIOps\": null,\r\n                \"ip\": null,\r\n                \"ip6\": null,\r\n                \"ipcMode\": null,\r\n                \"isolation\": null,\r\n                \"kernelMemory\": null,\r\n                \"kind\": \"container\",\r\n                \"labels\": {\r\n                    \"io.rancher.container.pull_image\": \"always\"\r\n                },\r\n                \"logConfig\": {\r\n                    \"type\": \"logConfig\",\r\n                    \"config\": {},\r\n                    \"driver\": null\r\n                },\r\n                \"memory\": null,\r\n                \"memoryMb\": null,\r\n                \"memoryReservation\": null,\r\n                \"memorySwap\": null,\r\n                \"memorySwappiness\": null,\r\n                \"milliCpuReservation\": null,\r\n                \"networkMode\": \"managed\",\r\n                \"oomScoreAdj\": null,\r\n                \"pidMode\": null,\r\n                \"pidsLimit\": null,\r\n                \"ports\": [\r\n                    \"27017:27017/tcp\"\r\n                ],\r\n                \"privileged\": false,\r\n                \"publishAllPorts\": false,\r\n                \"readOnly\": false,\r\n                \"requestedIpAddress\": null,\r\n                \"runInit\": false,\r\n                \"secrets\": [],\r\n                \"shmSize\": null,\r\n                \"startOnCreate\": true,\r\n                \"stdinOpen\": true,\r\n                \"stopSignal\": null,\r\n                \"stopTimeout\": null,\r\n                \"system\": false,\r\n                \"tty\": true,\r\n                \"user\": null,\r\n                \"userdata\": null,\r\n                \"usernsMode\": null,\r\n                \"uts\": null,\r\n                \"version\": \"0c4c2191-1c3e-460e-a50e-5e6f30e1c814\",\r\n                \"volumeDriver\": null,\r\n                \"workingDir\": null,\r\n                \"dataVolumesFromLaunchConfigs\": [],\r\n                \"networkLaunchConfig\": null,\r\n                \"vcpu\": 1,\r\n                \"drainTimeoutMs\": 0\r\n            },\r\n            \"previousSecondaryLaunchConfigs\": [],\r\n            \"secondaryLaunchConfigs\": [],\r\n            \"startFirst\": false\r\n        },\r\n        \"toServiceStrategy\": null\r\n    },\r\n    \"uuid\": \"7d0aae87-0cad-46fc-8284-c67c3b951696\",\r\n    \"vip\": null,\r\n    \"environmentId\": \"1e6\"\r\n}",
					"options": {
						"raw": {
							"language": "json"
						}
					}
				},
				"url": {
					"raw": "{{Host}}/v1/projects/1a5/services/1s139",
					"host": [
						"{{Host}}"
					],
					"path": [
						"v1",
						"projects",
						"1a5",
						"services",
						"1s139"
					]
				}
			},
			"response": []
		},
		{
			"name": "Return_NewlyScaled_IP",
			"event": [
				{
					"listen": "test",
					"script": {
						"id": "64d74cac-93e6-44fd-b402-c68965825929",
						"exec": [
							"var response = pm.response.json();\r",
							"var public_endpoints_arr = response.data.fields.publicEndpoints;\r",
							"\r",
							"console.log(public_endpoints_arr[public_endpoints_arr.length-1].ipAddress);\r",
							"\r",
							"pm.environment.set('MongoIP', public_endpoints_arr[public_endpoints_arr.length-1].ipAddress);"
						],
						"type": "text/javascript"
					}
				}
			],
			"request": {
				"auth": {
					"type": "basic",
					"basic": [
						{
							"key": "password",
							"value": "tHCXrjPqbmWeXuYsytv7m58Wfpf8J9tT893HeLnw",
							"type": "string"
						},
						{
							"key": "username",
							"value": "8A5846C15318C4EFC642",
							"type": "string"
						}
					]
				},
				"method": "GET",
				"header": [],
				"url": {
					"raw": "{{Host}}/v1/services/1s139",
					"host": [
						"{{Host}}"
					],
					"path": [
						"v1",
						"services",
						"1s139"
					]
				}
			},
			"response": []
		},
		{
			"name": "ClearDB_Collection",
			"request": {
				"method": "DELETE",
				"header": [],
				"url": {
					"raw": "http://10.97.178.217:7071/v2/clearUserCollection",
					"protocol": "http",
					"host": [
						"10",
						"97",
						"178",
						"217"
					],
					"port": "7071",
					"path": [
						"v2",
						"clearUserCollection"
					]
				}
			},
			"response": []
		},
		{
			"name": "Setup_NewMongo_IP",
			"request": {
				"method": "PUT",
				"header": [],
				"body": {
					"mode": "raw",
					"raw": "{\r\n  \"name\": \"MongoDB_Instance_UserRegistration\",\r\n  \"ipAddress\": \"{{MongoIP}}\",\r\n  \"port\": 27017\r\n}",
					"options": {
						"raw": {
							"language": "json"
						}
					}
				},
				"url": {
					"raw": "http://10.97.179.1:8081/api/updateEnvironmentByName/MongoDB_Instance_UserRegistration",
					"protocol": "http",
					"host": [
						"10",
						"97",
						"179",
						"1"
					],
					"port": "8081",
					"path": [
						"api",
						"updateEnvironmentByName",
						"MongoDB_Instance_UserRegistration"
					]
				}
			},
			"response": []
		}
	],
	"protocolProfileBehavior": {}
}